Preprocessing
…
learningBlocks <- c("learningBlock1", "learningBlock2", "learningBlock3", "learningBlock4");

learning <- raw_data %>% 
  filter(task %in% learningBlocks) 

learning <- droplevels(learning);
rm(learningBlocks)

How many trials per participant?

learning %>%                             
  group_by(subjID, learning) %>%    
  count() 

## # A tibble: 80 x 3
## # Groups:   subjID, learning [80]
##     subjID learning     n
##      <int> <fct>    <int>
##  1 1414932 LF         120
##  2 1414933 LF         120
##  3 1414937 FL         120
##  4 1414945 FL         120
##  5 1414957 FL         120
##  6 1415040 FL         120
##  7 1420163 FL         120
##  8 1420165 FL         120
##  9 1420169 LF         120
## 10 1420171 LF         120
## # ... with 70 more rows

Great, 120 trials per participant.

Lets check whether the blocks length varied across participants:

learning %>%                             
  group_by(subjID, task) %>%
  count()

## # A tibble: 320 x 3
## # Groups:   subjID, task [320]
##     subjID task               n
##      <int> <fct>          <int>
##  1 1414932 learningBlock1    21
##  2 1414932 learningBlock2    28
##  3 1414932 learningBlock3    47
##  4 1414932 learningBlock4    24
##  5 1414933 learningBlock1    26
##  6 1414933 learningBlock2    22
##  7 1414933 learningBlock3    44
##  8 1414933 learningBlock4    28
##  9 1414937 learningBlock1    27
## 10 1414937 learningBlock2    47
## # ... with 310 more rows
…
as.factor(gsub("/task/70033/56/asset/|/task/70033/57/asset/", "", generalizationPL$resp))-> generalizationPL$resp
as.factor(gsub(".mp3$", "", generalizationPL$resp))-> generalizationPL$resp
as.factor(gsub(".jpg", "", generalizationPL$resp))-> generalizationPL$resp

as.factor(gsub('[[:punct:]]|"', "", generalizationPL$label))-> generalizationPL$label 
as.factor(gsub('mp3', "_", generalizationPL$label))-> generalizationPL$label

Check how many trials participants:

generalizationPL %>%                             
  group_by(subjID) %>%  
  count() 

## # A tibble: 80 x 2
## # Groups:   subjID [80]
##     subjID     n
##      <int> <int>
##  1 1414932    24
##  2 1414933    24
##  3 1414937    24
##  4 1414945    24
##  5 1414957    24
##  6 1415040    24
##  7 1420163    24
##  8 1420165    24
##  9 1420169    24
## 10 1420171    24
## # ... with 70 more rows
…
generalizationPL %>%                             
  group_by(subjID, resp) %>%  
  count() 

## Warning: Factor `resp` contains implicit NA, consider using
## `forcats::fct_explicit_na`

## Warning: Factor `resp` contains implicit NA, consider using
## `forcats::fct_explicit_na`

## Warning: Factor `resp` contains implicit NA, consider using
## `forcats::fct_explicit_na`

## # A tibble: 291 x 3
## # Groups:   subjID, resp [291]
##     subjID resp      n
##      <int> <fct> <int>
##  1 1414932 bim       6
##  2 1414932 dep       5
##  3 1414932 tob       9
##  4 1414932 <NA>      4
##  5 1414933 bim       8
##  6 1414933 dep       8
##  7 1414933 tob       8
##  8 1414937 bim       8
##  9 1414937 dep       7
## 10 1414937 tob       8
## # ... with 281 more rows
…
Lets check the second task.

Check test 2: Generalization from label to pictures

generalizationLP <- testing %>%
  filter(task == 'generalizationLP') 
generalizationLP <- droplevels(generalizationLP)

How many trials per participant?

generalizationLP %>%                             
  group_by(subjID) %>%  
  count() 

## # A tibble: 80 x 2
## # Groups:   subjID [80]
##     subjID     n
##      <int> <int>
##  1 1414932    24
##  2 1414933    24
##  3 1414937    24
##  4 1414945    24
##  5 1414957    24
##  6 1415040    24
##  7 1420163    24
##  8 1420165    24
##  9 1420169    24
## 10 1420171    24
## # ... with 70 more rows
…
fribbleSet$resp <- fribbleSet$fribbleID # column's name needs to be the same in order to merge
merge(generalizationLP, fribbleSet, by = 'resp', all.x = T)-> generalizationLP;
fribbleSet$resp <- NULL;
generalizationLP$fribbleID.y <- NULL;
generalizationLP$label.y <- NULL;
generalizationLP <- rename(generalizationLP, label = label.x);
generalizationLP <- rename(generalizationLP, fribbleID = fribbleID.x);

Lets check whether we have responses in all the three categories:

generalizationLP %>%                             
  group_by(subjID, category) %>%  
  count()

## # A tibble: 295 x 3
## # Groups:   subjID, category [295]
##     subjID category     n
##      <int>    <int> <int>
##  1 1414932        1     7
##  2 1414932        2    11
##  3 1414932        3     2
##  4 1414932       NA     4
##  5 1414933        1     8
##  6 1414933        2     5
##  7 1414933        3    10
##  8 1414933       NA     1
##  9 1414937        1     7
## 10 1414937        2     7
## # ... with 285 more rows

Cool.

Check responses distribution over category:

generalizationLP %>%                             
  group_by(subjID, label, frequency) %>%  
  count()

## # A tibble: 583 x 4
## # Groups:   subjID, label, frequency [583]
##     subjID label frequency     n
##      <int> <fct>     <int> <int>
##  1 1414932 bim          25     3
##  2 1414932 bim          75     4
##  3 1414932 bim          NA     1
##  4 1414932 dep          25     3
##  5 1414932 dep          75     3
##  6 1414932 dep          NA     2
##  7 1414932 tob          25     3
##  8 1414932 tob          75     4
##  9 1414932 tob          NA     1
## 10 1414933 bim          25     4
## # ... with 573 more rows

Check test 3: Contingency Judgement task

contingencyJudgement <- testing %>%
  filter(task == 'contingencyJudgement') 
contingencyJudgement <- droplevels(contingencyJudgement)

How many trials per participant?

contingencyJudgement %>%                             
  group_by(subjID) %>%  
  count() 

## # A tibble: 80 x 2
## # Groups:   subjID [80]
##     subjID     n
##      <int> <int>
##  1 1414932    24
##  2 1414933    24
##  3 1414937    24
##  4 1414945    24
##  5 1414957    24
##  6 1415040    24
##  7 1420163    24
##  8 1420165    24
##  9 1420169    24
## 10 1420171    24
## # ... with 70 more rows
…
good

merge(contingencyJudgement, fribbleSet, by = 'fribbleID')-> contingencyJudgement
contingencyJudgement$label.y <- NULL;
contingencyJudgement <- rename(contingencyJudgement, label = label.x)

Check category presentation:

contingencyJudgement %>%                             
  group_by(subjID, category) %>%  
  count()

## # A tibble: 240 x 3
## # Groups:   subjID, category [240]
##     subjID category     n
##      <int>    <int> <int>
##  1 1414932        1     8
##  2 1414932        2     8
##  3 1414932        3     8
##  4 1414933        1     8
##  5 1414933        2     8
##  6 1414933        3     8
##  7 1414937        1     8
##  8 1414937        2     8
##  9 1414937        3     8
## 10 1414945        1     8
## # ... with 230 more rows

Check test 4: Random dot task

Lets check our random dot task. This was inserted randomly during trials 4 times. 5 trials each time, plus 4 practice trials.

randomDot <- testing %>%
  filter(task == 'randomDot') 

How many trials per participant?

randomDot %>%                             
  group_by(subjID) %>%  
  count() 

## # A tibble: 80 x 2
## # Groups:   subjID [80]
##     subjID     n
##      <int> <int>
##  1 1414932    26
##  2 1414933    26
##  3 1414937    26
##  4 1414945    26
##  5 1414957    26
##  6 1415040    26
##  7 1420163    26
##  8 1420165    26
##  9 1420169    26
## 10 1420171    26
## # ... with 70 more rows

we have 5 trials repeated during learning four times (20) plus 4 practice trials. How was accuracy distributed across participants?

First, lets consider that when we have a timeout, the output is -1

randomDot %>%                             
  group_by(subjID, resp) %>% 
  filter(rt == -1) %>%
  count()

## # A tibble: 57 x 3
## # Groups:   subjID, resp [57]
##     subjID resp      n
##      <int> <fct> <int>
##  1 1414932 -1       10
##  2 1414933 -1        1
##  3 1414945 -1        3
##  4 1415040 -1        1
##  5 1420163 -1        2
##  6 1420165 -1        1
##  7 1420180 -1        2
##  8 1420185 -1        1
##  9 1420204 -1        1
## 10 1420552 -1        3
## # ... with 47 more rows
…
